{
  "songslist": [
    {
      "name": "kamień z napisem LOVE",
      "artist": "Enej",
      "id": "53c6ef2c-f124-4ad9-93ea-5aaccb72d8f1",
      "list": "black",
      "editMode": true
    },
    {
      "name": "fun",
      "artist": "pitbull",
      "id": "7c08d354-1ca6-4cb6-823b-ec1cc53f3d84",
      "list": "black",
      "editMode": true
    },
    {
      "name": "wszystko",
      "artist": "ABBA",
      "id": "f0d3335d-3fb6-4884-a1e9-17f625fb1792",
      "list": "white",
      "editMode": true
    }
  ],
  "comments": [],
  "profile": {
    "name": "typicode"
  }
}